02_dplyr.utf8.md
…
---

# filter

```r
imdb %>% 
  filter(ano >= 2015)
```

```
## # A tibble: 232 x 16
##    titulo   ano diretor duracao cor   generos pais  classificacao orcamento
##    <chr>  <int> <chr>     <int> <chr> <chr>   <chr> <chr>             <int>
##  1 Aveng~  2015 Joss W~     141 Color Action~ USA   A partir de ~ 250000000
##  2 Batma~  2016 Zack S~     183 Color Action~ USA   A partir de ~ 250000000
##  3 Capta~  2016 Anthon~     147 Color Action~ USA   A partir de ~ 250000000
##  4 Juras~  2015 Colin ~     124 Color Action~ USA   A partir de ~ 150000000
##  5 Furio~  2015 James ~     140 Color Action~ USA   A partir de ~ 190000000
##  6 The G~  2015 Peter ~      93 Color Advent~ USA   Livre                NA
##  7 Star ~  2016 Justin~     122 Color Action~ USA   A partir de ~ 185000000
##  8 Jupit~  2015 Lana W~     127 Color Action~ USA   A partir de ~ 176000000
##  9 The L~  2016 David ~     110 Color Action~ USA   A partir de ~ 180000000
## 10 X-Men~  2016 Bryan ~     144 Color Action~ USA   A partir de ~ 178000000
## # ... with 222 more rows, and 7 more variables: receita <int>,
## #   nota_imdb <dbl>, likes_facebook <int>, ator_1 <chr>, ator_2 <chr>,
## #   ator_3 <chr>, genero <chr>
```
…
```
## [1] TRUE
```

---

# filter

```r
imdb %>% 
  filter(cor != "Color")
```

```
## # A tibble: 147 x 16
##    titulo   ano diretor duracao cor   generos pais  classificacao orcamento
##    <chr>  <int> <chr>     <int> <chr> <chr>   <chr> <chr>             <int>
##  1 Pearl~  2001 Michae~     184 Blac~ Action~ USA   A partir de ~ 140000000
##  2 The A~  2004 Martin~     170 Blac~ Biogra~ USA   A partir de ~ 110000000
##  3 Ali     2001 Michae~     165 Blac~ Biogra~ USA   A partir de ~ 107000000
##  4 Erago~  2006 Stefen~     104 Blac~ Action~ USA   Livre         100000000
##  5 Seabi~  2003 Gary R~     140 Blac~ Drama|~ USA   A partir de ~  87000000
##  6 Bewit~    NA <NA>         25 Blac~ Comedy~ USA   Outros               NA
##  7 Nine    2009 Rob Ma~     118 Blac~ Drama|~ USA   A partir de ~  80000000
##  8 The L~  2003 Stephe~     110 Blac~ Action~ USA   A partir de ~  78000000
##  9 War H~  2011 Steven~     146 Blac~ Drama|~ USA   A partir de ~  66000000
## 10 Space~  2000 Clint ~     130 Blac~ Action~ USA   A partir de ~  65000000
## # ... with 137 more rows, and 7 more variables: receita <int>,
## #   nota_imdb <dbl>, likes_facebook <int>, ator_1 <chr>, ator_2 <chr>,
## #   ator_3 <chr>, genero <chr>
```

---

# filter

```r
imdb %>% 
  filter(diretor %in% c("Tim Burton", "Spike Lee"))
```

```
## # A tibble: 30 x 16
##    titulo   ano diretor duracao cor   generos pais  classificacao orcamento
##    <chr>  <int> <chr>     <int> <chr> <chr>   <chr> <chr>             <int>
##  1 Alice~  2010 Tim Bu~     108 Color Advent~ USA   Livre         200000000
##  2 Charl~  2005 Tim Bu~     115 Color Advent~ USA   Livre         150000000
##  3 Dark ~  2012 Tim Bu~     113 Color Comedy~ USA   A partir de ~ 100000000
##  4 Plane~  2001 Tim Bu~     119 Color Action~ USA   A partir de ~ 100000000
##  5 Batma~  1992 Tim Bu~     126 Color Action  USA   A partir de ~  80000000
##  6 Mars ~  1996 Tim Bu~     106 Color Action~ USA   A partir de ~  70000000
##  7 Big F~  2003 Tim Bu~     125 Color Advent~ USA   A partir de ~  70000000
##  8 Insid~  2006 Spike ~     129 Color Crime|~ USA   A partir de ~  45000000
##  9 Mirac~  2008 Spike ~     160 Color Action~ USA   A partir de ~  45000000
## 10 Frank~  2012 Tim Bu~      87 Blac~ Animat~ USA   Livre          39000000
## # ... with 20 more rows, and 7 more variables: receita <int>,
## #   nota_imdb <dbl>, likes_facebook <int>, ator_1 <chr>, ator_2 <chr>,
## #   ator_3 <chr>, genero <chr>
```
…
---

# arrange

Use <a>arrange()</a> para reordenar as observações (linhas)

```r
imdb %>% 
  arrange(nota_imdb)
```

```
## # A tibble: 3,714 x 16
##    titulo   ano diretor duracao cor   generos pais  classificacao orcamento
##    <chr>  <int> <chr>     <int> <chr> <chr>   <chr> <chr>             <int>
##  1 Justi~  2011 Jon M.~     115 Color Docume~ USA   Outros         13000000
##  2 Foodf~  2012 Lawren~      91 Color Action~ USA   Livre          65000000
##  3 Disas~  2008 Jason ~      88 Color Comedy  USA   A partir de ~  25000000
##  4 The H~  2005 A. Rav~      97 Color Action~ USA   A partir de ~   1000000
##  5 Who's~  2007 Don Mi~      93 Color Comedy~ USA   A partir de ~   7000000
##  6 From ~  2003 Robert~      90 Color Comedy~ USA   Livre          12000000
##  7 Glitt~  2001 Vondie~     104 Color Drama|~ USA   A partir de ~  22000000
##  8 Cross~  2006 Presto~      95 Color Action~ USA   A partir de ~   5600000
##  9 Son o~  2005 Lawren~      94 Color Comedy~ USA   Livre          84000000
## 10 Snow ~  2012 David ~      83 Color Horror  USA   A partir de ~   1000000
## # ... with 3,704 more rows, and 7 more variables: receita <int>,
## #   nota_imdb <dbl>, likes_facebook <int>, ator_1 <chr>, ator_2 <chr>,
## #   ator_3 <chr>, genero <chr>
```

---

# arrange

Use <a>arrange()</a> para reordenar as observações (linhas)

```r
imdb %>% 
  arrange(ano, desc(nota_imdb))
```

```
## # A tibble: 3,714 x 16
##    titulo   ano diretor duracao cor   generos pais  classificacao orcamento
##    <chr>  <int> <chr>     <int> <chr> <chr>   <chr> <chr>             <int>
##  1 Intol~  1916 D.W. G~     123 Blac~ Drama|~ USA   Outros           385907
##  2 Over ~  1920 Harry ~     110 Blac~ Crime|~ USA   Outros           100000
##  3 The B~  1925 King V~     151 Blac~ Drama|~ USA   Outros           245000
##  4 The B~  1929 Harry ~     100 Blac~ Musica~ USA   Outros           379000
##  5 Hell'~  1930 Howard~      96 Blac~ Drama|~ USA   Outros          3950000
##  6 A Far~  1932 Frank ~      79 Blac~ Drama|~ USA   Outros           800000
##  7 42nd ~  1933 Lloyd ~      89 Blac~ Comedy~ USA   Outros           439000
##  8 She D~  1933 Lowell~      66 Blac~ Comedy~ USA   Outros           200000
##  9 It Ha~  1934 Frank ~      65 Blac~ Comedy~ USA   Outros           325000
## 10 Top H~  1935 Mark S~      81 Blac~ Comedy~ USA   Outros           609000
## # ... with 3,704 more rows, and 7 more variables: receita <int>,
## #   nota_imdb <dbl>, likes_facebook <int>, ator_1 <chr>, ator_2 <chr>,
## #   ator_3 <chr>, genero <chr>
```
…
---

# select

Formas mais comuns de usar o <a>select</a>

```r
imdb %>% 
  select(titulo, ano, diretor, duracao)
```

```
## # A tibble: 3,714 x 4
##    titulo                                      ano diretor          duracao
##    <chr>                                     <int> <chr>              <int>
##  1 Avatar                                     2009 James Cameron        178
##  2 Pirates of the Caribbean: At World's End   2007 Gore Verbinski       169
##  3 The Dark Knight Rises                      2012 Christopher Nol~     164
##  4 John Carter                                2012 Andrew Stanton       132
##  5 Spider-Man 3                               2007 Sam Raimi            156
##  6 Tangled                                    2010 Nathan Greno         100
##  7 Avengers: Age of Ultron                    2015 Joss Whedon          141
##  8 Batman v Superman: Dawn of Justice         2016 Zack Snyder          183
##  9 Superman Returns                           2006 Bryan Singer         169
## 10 Pirates of the Caribbean: Dead Man's Che~  2006 Gore Verbinski       151
## # ... with 3,704 more rows
```

---

# select

Formas mais comuns de usar o <a>select</a>

```r
imdb %>% 
  select(-likes_facebook, -ator_1, -ator_2, -ator_3)
```

```
## # A tibble: 3,714 x 12
##    titulo   ano diretor duracao cor   generos pais  classificacao orcamento
##    <chr>  <int> <chr>     <int> <chr> <chr>   <chr> <chr>             <int>
##  1 Avata~  2009 James ~     178 Color Action~ USA   A partir de ~ 237000000
##  2 Pirat~  2007 Gore V~     169 Color Action~ USA   A partir de ~ 300000000
##  3 The D~  2012 Christ~     164 Color Action~ USA   A partir de ~ 250000000
##  4 John ~  2012 Andrew~     132 Color Action~ USA   A partir de ~ 263700000
##  5 Spide~  2007 Sam Ra~     156 Color Action~ USA   A partir de ~ 258000000
##  6 Tangl~  2010 Nathan~     100 Color Advent~ USA   Livre         260000000
##  7 Aveng~  2015 Joss W~     141 Color Action~ USA   A partir de ~ 250000000
##  8 Batma~  2016 Zack S~     183 Color Action~ USA   A partir de ~ 250000000
##  9 Super~  2006 Bryan ~     169 Color Action~ USA   A partir de ~ 209000000
## 10 Pirat~  2006 Gore V~     151 Color Action~ USA   A partir de ~ 225000000
## # ... with 3,704 more rows, and 3 more variables: receita <int>,
## #   nota_imdb <dbl>, genero <chr>
```

---

# select

Formas mais comuns de usar o <a>select</a>

```r
imdb %>% 
  select(titulo:duracao)
```

```
## # A tibble: 3,714 x 4
##    titulo                                      ano diretor          duracao
##    <chr>                                     <int> <chr>              <int>
##  1 Avatar                                     2009 James Cameron        178
##  2 Pirates of the Caribbean: At World's End   2007 Gore Verbinski       169
##  3 The Dark Knight Rises                      2012 Christopher Nol~     164
##  4 John Carter                                2012 Andrew Stanton       132
##  5 Spider-Man 3                               2007 Sam Raimi            156
##  6 Tangled                                    2010 Nathan Greno         100
##  7 Avengers: Age of Ultron                    2015 Joss Whedon          141
##  8 Batman v Superman: Dawn of Justice         2016 Zack Snyder          183
##  9 Superman Returns                           2006 Bryan Singer         169
## 10 Pirates of the Caribbean: Dead Man's Che~  2006 Gore Verbinski       151
## # ... with 3,704 more rows
```

---

# select

Formas mais comuns de usar o <a>select</a>

```r
imdb %>% 
  select(- (likes_facebook:ator_3))
```

```
## # A tibble: 3,714 x 12
##    titulo   ano diretor duracao cor   generos pais  classificacao orcamento
##    <chr>  <int> <chr>     <int> <chr> <chr>   <chr> <chr>             <int>
##  1 Avata~  2009 James ~     178 Color Action~ USA   A partir de ~ 237000000
##  2 Pirat~  2007 Gore V~     169 Color Action~ USA   A partir de ~ 300000000
##  3 The D~  2012 Christ~     164 Color Action~ USA   A partir de ~ 250000000
##  4 John ~  2012 Andrew~     132 Color Action~ USA   A partir de ~ 263700000
##  5 Spide~  2007 Sam Ra~     156 Color Action~ USA   A partir de ~ 258000000
##  6 Tangl~  2010 Nathan~     100 Color Advent~ USA   Livre         260000000
##  7 Aveng~  2015 Joss W~     141 Color Action~ USA   A partir de ~ 250000000
##  8 Batma~  2016 Zack S~     183 Color Action~ USA   A partir de ~ 250000000
##  9 Super~  2006 Bryan ~     169 Color Action~ USA   A partir de ~ 209000000
## 10 Pirat~  2006 Gore V~     151 Color Action~ USA   A partir de ~ 225000000
## # ... with 3,704 more rows, and 3 more variables: receita <int>,
## #   nota_imdb <dbl>, genero <chr>
```
…
5. num_range("x", 1:3): seleciona x1, x2 and x3.

---

# select

Formas menos comuns de usar o <a>select</a>

```r
imdb %>% 
  select(1, 2, 3)
```

```
## # A tibble: 3,714 x 3
##    titulo                                        ano diretor          
##    <chr>                                       <int> <chr>            
##  1 Avatar                                       2009 James Cameron    
##  2 Pirates of the Caribbean: At World's End     2007 Gore Verbinski   
##  3 The Dark Knight Rises                        2012 Christopher Nolan
##  4 John Carter                                  2012 Andrew Stanton   
##  5 Spider-Man 3                                 2007 Sam Raimi        
##  6 Tangled                                      2010 Nathan Greno     
##  7 Avengers: Age of Ultron                      2015 Joss Whedon      
##  8 Batman v Superman: Dawn of Justice           2016 Zack Snyder      
##  9 Superman Returns                             2006 Bryan Singer     
## 10 Pirates of the Caribbean: Dead Man's Chest   2006 Gore Verbinski   
## # ... with 3,704 more rows
```

---

# select

Formas menos comuns de usar o <a>select</a>

```r
imdb %>% 
  select(contains("ator"))
```

```
## # A tibble: 3,714 x 3
##    ator_1          ator_2            ator_3              
##    <chr>           <chr>             <chr>               
##  1 CCH Pounder     Joel David Moore  Wes Studi           
##  2 Johnny Depp     Orlando Bloom     Jack Davenport      
##  3 Tom Hardy       Christian Bale    Joseph Gordon-Levitt
##  4 Daryl Sabara    Samantha Morton   Polly Walker        
##  5 J.K. Simmons    James Franco      Kirsten Dunst       
##  6 Brad Garrett    Donna Murphy      M.C. Gainey         
##  7 Chris Hemsworth Robert Downey Jr. Scarlett Johansson  
##  8 Henry Cavill    Lauren Cohan      Alan D. Purwin      
##  9 Kevin Spacey    Marlon Brando     Frank Langella      
## 10 Johnny Depp     Orlando Bloom     Jack Davenport      
## # ... with 3,704 more rows
```

---

# select

Formas menos comuns de usar o <a>select</a>

```r
imdb %>% 
  select(starts_with("d") )
```

```
## # A tibble: 3,714 x 2
##    diretor           duracao
##    <chr>               <int>
##  1 James Cameron         178
##  2 Gore Verbinski        169
##  3 Christopher Nolan     164
##  4 Andrew Stanton        132
##  5 Sam Raimi             156
##  6 Nathan Greno          100
##  7 Joss Whedon           141
##  8 Zack Snyder           183
##  9 Bryan Singer          169
## 10 Gore Verbinski        151
## # ... with 3,704 more rows
```

---

# select

Formas menos comuns de usar o <a>select</a>

```r
imdb %>% 
  select(ends_with("o"))
```

```
## # A tibble: 3,714 x 6
##    titulo                      ano duracao classificacao   orcamento genero
##    <chr>                     <int>   <int> <chr>               <int> <chr> 
##  1 Avatar                     2009     178 A partir de 13~ 237000000 homem 
##  2 Pirates of the Caribbean~  2007     169 A partir de 13~ 300000000 <NA>  
##  3 The Dark Knight Rises      2012     164 A partir de 13~ 250000000 homem 
##  4 John Carter                2012     132 A partir de 13~ 263700000 homem 
##  5 Spider-Man 3               2007     156 A partir de 13~ 258000000 homem 
##  6 Tangled                    2010     100 Livre           260000000 homem 
##  7 Avengers: Age of Ultron    2015     141 A partir de 13~ 250000000 homem 
##  8 Batman v Superman: Dawn ~  2016     183 A partir de 13~ 250000000 homem 
##  9 Superman Returns           2006     169 A partir de 13~ 209000000 homem 
## 10 Pirates of the Caribbean~  2006     151 A partir de 13~ 225000000 <NA>  
## # ... with 3,704 more rows
```
…
---

# mutate

Use <a>mutate()</a> para criar novas variáveis baseadas nas variáveis existentes

```r
imdb %>% 
  mutate(orcamento = orcamento / 1000000) # em milhoes
```

```
## # A tibble: 3,714 x 16
##    titulo   ano diretor duracao cor   generos pais  classificacao orcamento
##    <chr>  <int> <chr>     <int> <chr> <chr>   <chr> <chr>             <dbl>
##  1 Avata~  2009 James ~     178 Color Action~ USA   A partir de ~      237 
##  2 Pirat~  2007 Gore V~     169 Color Action~ USA   A partir de ~      300 
##  3 The D~  2012 Christ~     164 Color Action~ USA   A partir de ~      250 
##  4 John ~  2012 Andrew~     132 Color Action~ USA   A partir de ~      264.
##  5 Spide~  2007 Sam Ra~     156 Color Action~ USA   A partir de ~      258 
##  6 Tangl~  2010 Nathan~     100 Color Advent~ USA   Livre              260 
##  7 Aveng~  2015 Joss W~     141 Color Action~ USA   A partir de ~      250 
##  8 Batma~  2016 Zack S~     183 Color Action~ USA   A partir de ~      250 
##  9 Super~  2006 Bryan ~     169 Color Action~ USA   A partir de ~      209 
## 10 Pirat~  2006 Gore V~     151 Color Action~ USA   A partir de ~      225 
## # ... with 3,704 more rows, and 7 more variables: receita <int>,
## #   nota_imdb <dbl>, likes_facebook <int>, ator_1 <chr>, ator_2 <chr>,
## #   ator_3 <chr>, genero <chr>
```
…
4. Detectar a uma expressão em um texto:
<a>str_detect</a>(texto, "padrao")

---

# mutate

```r
imdb %>% 
  mutate(diretor = str_to_lower(diretor))
```

```
## # A tibble: 3,714 x 16
##    titulo   ano diretor duracao cor   generos pais  classificacao orcamento
##    <chr>  <int> <chr>     <int> <chr> <chr>   <chr> <chr>             <int>
##  1 Avata~  2009 james ~     178 Color Action~ USA   A partir de ~ 237000000
##  2 Pirat~  2007 gore v~     169 Color Action~ USA   A partir de ~ 300000000
##  3 The D~  2012 christ~     164 Color Action~ USA   A partir de ~ 250000000
##  4 John ~  2012 andrew~     132 Color Action~ USA   A partir de ~ 263700000
##  5 Spide~  2007 sam ra~     156 Color Action~ USA   A partir de ~ 258000000
##  6 Tangl~  2010 nathan~     100 Color Advent~ USA   Livre         260000000
##  7 Aveng~  2015 joss w~     141 Color Action~ USA   A partir de ~ 250000000
##  8 Batma~  2016 zack s~     183 Color Action~ USA   A partir de ~ 250000000
##  9 Super~  2006 bryan ~     169 Color Action~ USA   A partir de ~ 209000000
## 10 Pirat~  2006 gore v~     151 Color Action~ USA   A partir de ~ 225000000
## # ... with 3,704 more rows, and 7 more variables: receita <int>,
## #   nota_imdb <dbl>, likes_facebook <int>, ator_1 <chr>, ator_2 <chr>,
## #   ator_3 <chr>, genero <chr>
```

---

# mutate

```r
imdb %>% 
  mutate(diretor = str_to_upper(diretor))
```

```
## # A tibble: 3,714 x 16
##    titulo   ano diretor duracao cor   generos pais  classificacao orcamento
##    <chr>  <int> <chr>     <int> <chr> <chr>   <chr> <chr>             <int>
##  1 Avata~  2009 JAMES ~     178 Color Action~ USA   A partir de ~ 237000000
##  2 Pirat~  2007 GORE V~     169 Color Action~ USA   A partir de ~ 300000000
##  3 The D~  2012 CHRIST~     164 Color Action~ USA   A partir de ~ 250000000
##  4 John ~  2012 ANDREW~     132 Color Action~ USA   A partir de ~ 263700000
##  5 Spide~  2007 SAM RA~     156 Color Action~ USA   A partir de ~ 258000000
##  6 Tangl~  2010 NATHAN~     100 Color Advent~ USA   Livre         260000000
##  7 Aveng~  2015 JOSS W~     141 Color Action~ USA   A partir de ~ 250000000
##  8 Batma~  2016 ZACK S~     183 Color Action~ USA   A partir de ~ 250000000
##  9 Super~  2006 BRYAN ~     169 Color Action~ USA   A partir de ~ 209000000
## 10 Pirat~  2006 GORE V~     151 Color Action~ USA   A partir de ~ 225000000
## # ... with 3,704 more rows, and 7 more variables: receita <int>,
## #   nota_imdb <dbl>, likes_facebook <int>, ator_1 <chr>, ator_2 <chr>,
## #   ator_3 <chr>, genero <chr>
```

---

# mutate

```r
imdb %>% 
  mutate(diretor = str_replace(titulo, "The ", ""))
```

```
## # A tibble: 3,714 x 16
##    titulo   ano diretor duracao cor   generos pais  classificacao orcamento
##    <chr>  <int> <chr>     <int> <chr> <chr>   <chr> <chr>             <int>
##  1 Avata~  2009 Avatar      178 Color Action~ USA   A partir de ~ 237000000
##  2 Pirat~  2007 Pirate~     169 Color Action~ USA   A partir de ~ 300000000
##  3 The D~  2012 Dark K~     164 Color Action~ USA   A partir de ~ 250000000
##  4 John ~  2012 John C~     132 Color Action~ USA   A partir de ~ 263700000
##  5 Spide~  2007 Spider~     156 Color Action~ USA   A partir de ~ 258000000
##  6 Tangl~  2010 Tangle~     100 Color Advent~ USA   Livre         260000000
##  7 Aveng~  2015 Avenge~     141 Color Action~ USA   A partir de ~ 250000000
##  8 Batma~  2016 Batman~     183 Color Action~ USA   A partir de ~ 250000000
##  9 Super~  2006 Superm~     169 Color Action~ USA   A partir de ~ 209000000
## 10 Pirat~  2006 Pirate~     151 Color Action~ USA   A partir de ~ 225000000
## # ... with 3,704 more rows, and 7 more variables: receita <int>,
## #   nota_imdb <dbl>, likes_facebook <int>, ator_1 <chr>, ator_2 <chr>,
## #   ator_3 <chr>, genero <chr>
```
…
